%YAML 1.1
%TAG !u! tag:unity3d.com,2011:
--- !u!74 &7400000
AnimationClip:
  m_ObjectHideFlags: 0
  m_PrefabParentObject: {fileID: 0}
  m_PrefabInternal: {fileID: 0}
  m_Name: SliceKnife
  serializedVersion: 6
  m_Legacy: 0
  m_Compressed: 0
  m_UseHighQualityCurve: 1
  m_RotationCurves: []
  m_CompressedRotationCurves: []
  m_EulerCurves:
  - curve:
      serializedVersion: 2
      m_Curve:
      - time: 0
        value: {x: -2.28, y: -134.9, z: -28.98}
        inSlope: {x: -147.59999, y: 482.5, z: 0}
        outSlope: {x: -147.59999, y: 482.5, z: 0}
        tangentMode: 0
      - time: 0.2
        value: {x: -31.8, y: -38.399998, z: -28.98}
        inSlope: {x: 472.95, y: 551.75, z: 550.80005}
        outSlope: {x: 472.95, y: 551.75, z: 550.80005}
        tangentMode: 0
      - time: 0.22222222
        value: {x: -7.5, y: -24.599998, z: -4.5}
        inSlope: {x: 486, y: 519.5, z: 489.60004}
        outSlope: {x: 486, y: 519.5, z: 489.60004}
        tangentMode: 0
      - time: 0.42222223
        value: {x: -31.8, y: 59, z: -28.98}
        inSlope: {x: -60.749996, y: 209, z: -61.199997}
        outSlope: {x: -60.749996, y: 209, z: -61.199997}
        tangentMode: 0
      - time: 0.53333336
        value: {x: -31.8, y: 59, z: -28.98}
        inSlope: {x: 0, y: 0, z: 0}
        outSlope: {x: 0, y: 0, z: 0}
        tangentMode: 0
      m_PreInfinity: 2
      m_PostInfinity: 2
      m_RotationOrder: 4
    path: 
  m_PositionCurves:
  - curve:
      serializedVersion: 2
      m_Curve:
      - time: 0
        value: {x: -0.038, y: -0.32699978, z: 0.644}
        inSlope: {x: 2.5100033, y: 0, z: 1.5150001}
        outSlope: {x: 2.5100033, y: 0, z: 1.5150001}
        tangentMode: 0
      - time: 0.2
        value: {x: 0.4640007, y: -0.32699978, z: 0.947}
        inSlope: {x: 3.5532875, y: 0, z: 10.9725}
        outSlope: {x: 3.5532875, y: 0, z: 10.9725}
        tangentMode: 0
      - time: 0.22222222
        value: {x: 0.56614673, y: -0.32699978, z: 1.401}
        inSlope: {x: 4.890419, y: 0, z: 8.9925}
        outSlope: {x: 4.890419, y: 0, z: 8.9925}
        tangentMode: 0
      - time: 0.42222223
        value: {x: 1.603, y: -0.32699978, z: 0.912}
        inSlope: {x: -0.7378664, y: 0, z: -1.2225001}
        outSlope: {x: -0.7378664, y: 0, z: -1.2225001}
        tangentMode: 0
      - time: 0.53333336
        value: {x: 0.863, y: -0.32699978, z: 0.912}
        inSlope: {x: -6.6599994, y: 0, z: 0}
        outSlope: {x: -6.6599994, y: 0, z: 0}
        tangentMode: 0
      m_PreInfinity: 2
      m_PostInfinity: 2
      m_RotationOrder: 4
    path: 
  m_ScaleCurves: []
  m_FloatCurves: []
  m_PPtrCurves: []
  m_SampleRate: 45
  m_WrapMode: 0
  m_Bounds:
    m_Center: {x: 0, y: 0, z: 0}
    m_Extent: {x: 0, y: 0, z: 0}
  m_ClipBindingConstant:
    genericBindings:
    - path: 0
      attribute: 1
      script: {fileID: 0}
      classID: 4
      customType: 0
      isPPtrCurve: 0
    - path: 0
      attribute: 4
      script: {fileID: 0}
      classID: 4
      customType: 14
      isPPtrCurve: 0
    pptrCurveMapping: []
  m_AnimationClipSettings:
    serializedVersion: 2
    m_AdditiveReferencePoseClip: {fileID: 0}
    m_AdditiveReferencePoseTime: 0
    m_StartTime: 0
    m_StopTime: 0.53333336
    m_OrientationOffsetY: 0
    m_Level: 0
    m_CycleOffset: 0
    m_HasAdditiveReferencePose: 0
    m_LoopTime: 0
    m_LoopBlend: 0
    m_LoopBlendOrientation: 0
    m_LoopBlendPositionY: 0
    m_LoopBlendPositionXZ: 0
    m_KeepOriginalOrientation: 0
    m_KeepOriginalPositionY: 1
    m_KeepOriginalPositionXZ: 0
    m_HeightFromFeet: 0
    m_Mirror: 0
  m_EditorCurves:
  - curve:
      serializedVersion: 2
      m_Curve:
      - time: 0
        value: -0.038
        inSlope: 2.5100033
        outSlope: 2.5100033
        tangentMode: 10
      - time: 0.2
        value: 0.4640007
        inSlope: 3.5532875
        outSlope: 3.5532875
        tangentMode: 10
      - time: 0.22222222
        value: 0.56614673
        inSlope: 4.890419
        outSlope: 4.890419
        tangentMode: 10
      - time: 0.42222223
        value: 1.603
        inSlope: -0.7378664
        outSlope: -0.7378664
        tangentMode: 10
      - time: 0.53333336
        value: 0.863
        inSlope: -6.6599994
        outSlope: -6.6599994
        tangentMode: 10
      m_PreInfinity: 2
      m_PostInfinity: 2
      m_RotationOrder: 4
    attribute: m_LocalPosition.x
    path: 
    classID: 4
    script: {fileID: 0}
  - curve:
      serializedVersion: 2
      m_Curve:
      - time: 0
        value: -0.32699978
        inSlope: 0
        outSlope: 0
        tangentMode: 10
      - time: 0.2
        value: -0.32699978
        inSlope: 0
        outSlope: 0
        tangentMode: 10
      - time: 0.22222222
        value: -0.32699978
        inSlope: 0
        outSlope: 0
        tangentMode: 10
      - time: 0.42222223
        value: -0.32699978
        inSlope: 0
        outSlope: 0
        tangentMode: 10
      - time: 0.53333336
        value: -0.32699978
        inSlope: 0
        outSlope: 0
        tangentMode: 10
      m_PreInfinity: 2
      m_PostInfinity: 2
      m_RotationOrder: 4
    attribute: m_LocalPosition.y
    path: 
    classID: 4
    script: {fileID: 0}
  - curve:
      serializedVersion: 2
      m_Curve:
      - time: 0
        value: 0.644
        inSlope: 1.5150001
        outSlope: 1.5150001
        tangentMode: 10
      - time: 0.2
        value: 0.947
        inSlope: 10.9725
        outSlope: 10.9725
        tangentMode: 10
      - time: 0.22222222
        value: 1.401
        inSlope: 8.9925
        outSlope: 8.9925
        tangentMode: 10
      - time: 0.42222223
        value: 0.912
        inSlope: -1.2225001
        outSlope: -1.2225001
        tangentMode: 10
      - time: 0.53333336
        value: 0.912
        inSlope: 0
        outSlope: 0
        tangentMode: 10
      m_PreInfinity: 2
      m_PostInfinity: 2
      m_RotationOrder: 4
    attribute: m_LocalPosition.z
    path: 
    classID: 4
    script: {fileID: 0}
  - curve:
      serializedVersion: 2
      m_Curve:
      - time: 0
        value: -2.28
        inSlope: -147.59999
        outSlope: -147.59999
        tangentMode: 10
      - time: 0.2
        value: -31.8
        inSlope: 472.95
        outSlope: 472.95
        tangentMode: 10
      - time: 0.22222222
        value: -7.5
        inSlope: 486
        outSlope: 486
        tangentMode: 10
      - time: 0.42222223
        value: -31.8
        inSlope: -60.749996
        outSlope: -60.749996
        tangentMode: 10
      - time: 0.53333336
        value: -31.8
        inSlope: 0
        outSlope: 0
        tangentMode: 10
      m_PreInfinity: 2
      m_PostInfinity: 2
      m_RotationOrder: 4
    attribute: localEulerAnglesRaw.x
    path: 
    classID: 4
    script: {fileID: 0}
  - curve:
      serializedVersion: 2
      m_Curve:
      - time: 0
        value: -134.9
        inSlope: 482.5
        outSlope: 482.5
        tangentMode: 10
      - time: 0.2
        value: -38.399998
        inSlope: 551.75
        outSlope: 551.75
        tangentMode: 10
      - time: 0.22222222
        value: -24.599998
        inSlope: 519.5
        outSlope: 519.5
        tangentMode: 10
      - time: 0.42222223
        value: 59
        inSlope: 209
        outSlope: 209
        tangentMode: 10
      - time: 0.53333336
        value: 59
        inSlope: 0
        outSlope: 0
        tangentMode: 10
      m_PreInfinity: 2
      m_PostInfinity: 2
      m_RotationOrder: 4
    attribute: localEulerAnglesRaw.y
    path: 
    classID: 4
    script: {fileID: 0}
  - curve:
      serializedVersion: 2
      m_Curve:
      - time: 0
        value: -28.98
        inSlope: 0
        outSlope: 0
        tangentMode: 10
      - time: 0.2
        value: -28.98
        inSlope: 550.80005
        outSlope: 550.80005
        tangentMode: 10
      - time: 0.22222222
        value: -4.5
        inSlope: 489.60004
        outSlope: 489.60004
        tangentMode: 10
      - time: 0.42222223
        value: -28.98
        inSlope: -61.199997
        outSlope: -61.199997
        tangentMode: 10
      - time: 0.53333336
        value: -28.98
        inSlope: 0
        outSlope: 0
        tangentMode: 10
      m_PreInfinity: 2
      m_PostInfinity: 2
      m_RotationOrder: 4
    attribute: localEulerAnglesRaw.z
    path: 
    classID: 4
    script: {fileID: 0}
  m_EulerEditorCurves:
  - curve:
      serializedVersion: 2
      m_Curve: []
      m_PreInfinity: 2
      m_PostInfinity: 2
      m_RotationOrder: 4
    attribute: m_LocalEulerAngles.x
    path: 
    classID: 4
    script: {fileID: 0}
  - curve:
      serializedVersion: 2
      m_Curve: []
      m_PreInfinity: 2
      m_PostInfinity: 2
      m_RotationOrder: 4
    attribute: m_LocalEulerAngles.y
    path: 
    classID: 4
    script: {fileID: 0}
  - curve:
      serializedVersion: 2
      m_Curve: []
      m_PreInfinity: 2
      m_PostInfinity: 2
      m_RotationOrder: 4
    attribute: m_LocalEulerAngles.z
    path: 
    classID: 4
    script: {fileID: 0}
  m_HasGenericRootTransform: 1
  m_HasMotionFloatCurves: 0
  m_GenerateMotionCurves: 0
  m_Events: []
