%YAML 1.1
%TAG !u! tag:unity3d.com,2011:
--- !u!114 &11400000
MonoBehaviour:
  m_ObjectHideFlags: 0
  m_PrefabParentObject: {fileID: 0}
  m_PrefabInternal: {fileID: 0}
  m_GameObject: {fileID: 0}
  m_Enabled: 1
  m_EditorHideFlags: 0
  m_Script: {fileID: 1227330239, guid: 9fa2ecd1ff2ad394281dd3bf72c5b76e, type: 3}
  m_Name: Patrol
  m_EditorClassIdentifier: 
  _dataSerializer:
    _serializedData: <scriptableobject version="1.3" type="RAIN.BehaviorTrees.BTAsset"><fields><field
      value="&lt;behaviortree version=&quot;1.1&quot; repeatuntil=&quot;&quot; name=&quot;Patrol&quot;
      debugbreak=&quot;False&quot;&gt;&lt;parallel tiebreaker=&quot;fail&quot; succeed=&quot;all&quot;
      repeatuntil=&quot;&quot; name=&quot;Main&quot; fail=&quot;any&quot; debugbreak=&quot;False&quot;&gt;&lt;detect
      sensor=&quot;&amp;quot;FrontEyes&amp;quot;&quot; repeatuntil=&quot;running&quot;
      name=&quot;Look FOr Player&quot; matchtype=&quot;best&quot; entityobjectvariable=&quot;PlayerSeen&quot;
      debugbreak=&quot;False&quot; consistent=&quot;True&quot; aspectvariable=&quot;CanSeePlayer&quot;
      aspectobjectvariable=&quot;&quot; aspect=&quot;&amp;quot;PlayerOne&amp;quot;&quot;
      /&gt;&lt;detect sensor=&quot;&amp;quot;Ears&amp;quot;&quot; repeatuntil=&quot;running&quot;
      name=&quot; Hear Player&quot; matchtype=&quot;best&quot; entityobjectvariable=&quot;PlayerHeard&quot;
      debugbreak=&quot;False&quot; consistent=&quot;True&quot; aspectvariable=&quot;CanHearPlayer&quot;
      aspectobjectvariable=&quot;&quot; aspect=&quot;&amp;quot;PlayerSteps&amp;quot;&quot;
      /&gt;&lt;selector usepriorities=&quot;False&quot; repeatuntil=&quot;&quot; name=&quot;selector&quot;
      debugbreak=&quot;False&quot;&gt;&lt;selector usepriorities=&quot;False&quot;
      repeatuntil=&quot;&quot; priority=&quot;&quot; name=&quot;selector&quot; debugbreak=&quot;False&quot;&gt;&lt;constraint
      repeatuntil=&quot;&quot; priority=&quot;&quot; name=&quot;constraint&quot; debugbreak=&quot;False&quot;
      constraint=&quot;PlayerHeard != null&quot;&gt;&lt;move turnspeed=&quot;180&quot;
      repeatuntil=&quot;running&quot; name=&quot;Look At Player&quot; movetarget=&quot;&quot;
      movespeed=&quot;&quot; facetarget=&quot;CanHearPlayer&quot; debugbreak=&quot;False&quot;
      closeenoughdistance=&quot;&quot; closeenoughangle=&quot;&quot; /&gt;&lt;/constraint&gt;&lt;constraint
      repeatuntil=&quot;&quot; priority=&quot;&quot; name=&quot;PlayerSeen&quot; debugbreak=&quot;False&quot;
      constraint=&quot;PlayerSeen != null&quot;&gt;&lt;move turnspeed=&quot;&quot;
      repeatuntil=&quot;running&quot; name=&quot;MoveTowardsPlayer&quot; movetarget=&quot;CanSeePlayer&quot;
      movespeed=&quot;5&quot; facetarget=&quot;CanSeePlayer&quot; debugbreak=&quot;False&quot;
      closeenoughdistance=&quot;&quot; closeenoughangle=&quot;&quot; /&gt;&lt;/constraint&gt;&lt;/selector&gt;&lt;constraint
      repeatuntil=&quot;&quot; priority=&quot;&quot; name=&quot;constraint&quot; debugbreak=&quot;False&quot;
      constraint=&quot;PlayerHeard == null&quot;&gt;&lt;waypointpatrol waypointsetvariable=&quot;Route&quot;
      waypointactiontype=&quot;patrol&quot; traversetype=&quot;pingpong&quot; traverseorder=&quot;forward&quot;
      repeatuntil=&quot;&quot; pathtargetvariable=&quot;&quot; name=&quot;Move To
      Patrol&quot; movetargetvariable=&quot;moveTarget&quot; debugbreak=&quot;False&quot;&gt;&lt;random
      repeatuntil=&quot;&quot; name=&quot;random&quot; debugbreak=&quot;False&quot;&gt;&lt;timer
      weight=&quot;&quot; waitforsec=&quot;1.3&quot; returnvalue=&quot;success&quot;
      name=&quot;timer&quot; debugbreak=&quot;False&quot; /&gt;&lt;timer weight=&quot;&quot;
      waitforsec=&quot;1&quot; returnvalue=&quot;success&quot; name=&quot;timer&quot;
      debugbreak=&quot;False&quot; /&gt;&lt;timer weight=&quot;&quot; waitforsec=&quot;0.8&quot;
      returnvalue=&quot;success&quot; name=&quot;timer&quot; debugbreak=&quot;False&quot;
      /&gt;&lt;/random&gt;&lt;move turnspeed=&quot;&quot; repeatuntil=&quot;&quot;
      name=&quot;Follow Path&quot; movetarget=&quot;moveTarget&quot; movespeed=&quot;3.6&quot;
      facetarget=&quot;moveTarget&quot; debugbreak=&quot;False&quot; closeenoughdistance=&quot;&quot;
      closeenoughangle=&quot;&quot; /&gt;&lt;/waypointpatrol&gt;&lt;/constraint&gt;&lt;/selector&gt;&lt;/parallel&gt;&lt;/behaviortree&gt;"
      type="System.String" id="treeData" /><field type="System.Array" id="treeBindings"
      elementtype="System.String" /></fields><references /></scriptableobject>
    _serializedGameObjects: []
    _serializedCustomData: []
