%YAML 1.1
%TAG !u! tag:unity3d.com,2011:
--- !u!47 &1
QualitySettings:
  m_ObjectHideFlags: 0
  serializedVersion: 5
  m_CurrentQuality: 2
  m_QualitySettings:
  - serializedVersion: 2
    name: Fastest
    pixelLightCount: 0
    shadows: 0
    shadowResolution: 0
    shadowProjection: 1
    shadowCascades: 1
    shadowDistance: 20
    shadowNearPlaneOffset: 2
    shadowCascade2Split: 0.33333334
    shadowCascade4Split: {x: 0.06666667, y: 0.2, z: 0.46666667}
    blendWeights: 1
    textureQuality: 1
    anisotropicTextures: 0
    antiAliasing: 0
    softParticles: 0
    softVegetation: 0
    realtimeReflectionProbes: 0
    billboardsFaceCameraPosition: 0
    vSyncCount: 0
    lodBias: 0.3
    maximumLODLevel: 0
    particleRaycastBudget: 4
    asyncUploadTimeSlice: 2
    asyncUploadBufferSize: 4
    excludedTargetPlatforms: []
  - serializedVersion: 2
    name: Fast
    pixelLightCount: 0
    shadows: 1
    shadowResolution: 0
    shadowProjection: 1
    shadowCascades: 1
    shadowDistance: 20
    shadowNearPlaneOffset: 2
    shadowCascade2Split: 0.33333334
    shadowCascade4Split: {x: 0.06666667, y: 0.2, z: 0.46666667}
    blendWeights: 2
    textureQuality: 0
    anisotropicTextures: 0
    antiAliasing: 0
    softParticles: 0
    softVegetation: 0
    realtimeReflectionProbes: 0
    billboardsFaceCameraPosition: 0
    vSyncCount: 0
    lodBias: 0.4
    maximumLODLevel: 0
    particleRaycastBudget: 16
    asyncUploadTimeSlice: 2
    asyncUploadBufferSize: 4
    excludedTargetPlatforms: []
  - serializedVersion: 2
    name: Simple
    pixelLightCount: 1
    shadows: 1
    shadowResolution: 1
    shadowProjection: 1
    shadowCascades: 1
    shadowDistance: 80
    shadowNearPlaneOffset: 2
    shadowCascade2Split: 0.33333334
    shadowCascade4Split: {x: 0.06666667, y: 0.2, z: 0.46666667}
    blendWeights: 2
    textureQuality: 0
    anisotropicTextures: 1
    antiAliasing: 0
    softParticles: 0
    softVegetation: 0
    realtimeReflectionProbes: 0
    billboardsFaceCameraPosition: 0
    vSyncCount: 0
    lodBias: 0.7
    maximumLODLevel: 0
    particleRaycastBudget: 64
    asyncUploadTimeSlice: 2
    asyncUploadBufferSize: 4
    excludedTargetPlatforms: []
  - serializedVersion: 2
    name: Good
    pixelLightCount: 2
    shadows: 2
    shadowResolution: 2
    shadowProjection: 1
    shadowCascades: 2
    shadowDistance: 100
    shadowNearPlaneOffset: 2
    shadowCascade2Split: 0.33333334
    shadowCascade4Split: {x: 0.06666667, y: 0.2, z: 0.46666667}
    blendWeights: 2
    textureQuality: 0
    anisotropicTextures: 1
    antiAliasing: 2
    softParticles: 1
    softVegetation: 1
    realtimeReflectionProbes: 1
    billboardsFaceCameraPosition: 1
    vSyncCount: 0
    lodBias: 1
    maximumLODLevel: 0
    particleRaycastBudget: 256
    asyncUploadTimeSlice: 2
    asyncUploadBufferSize: 4
    excludedTargetPlatforms: []
  - serializedVersion: 2
    name: Beautiful
    pixelLightCount: 8
    shadows: 2
    shadowResolution: 3
    shadowProjection: 1
    shadowCascades: 2
    shadowDistance: 120
    shadowNearPlaneOffset: 2
    shadowCascade2Split: 0.33333334
    shadowCascade4Split: {x: 0.06666667, y: 0.2, z: 0.46666667}
    blendWeights: 4
    textureQuality: 0
    anisotropicTextures: 2
    antiAliasing: 8
    softParticles: 1
    softVegetation: 1
    realtimeReflectionProbes: 1
    billboardsFaceCameraPosition: 1
    vSyncCount: 0
    lodBias: 1.5
    maximumLODLevel: 0
    particleRaycastBudget: 1024
    asyncUploadTimeSlice: 2
    asyncUploadBufferSize: 4
    excludedTargetPlatforms: []
  - serializedVersion: 2
    name: Fantastic
    pixelLightCount: 4
    shadows: 2
    shadowResolution: 3
    shadowProjection: 1
    shadowCascades: 4
    shadowDistance: 120
    shadowNearPlaneOffset: 2
    shadowCascade2Split: 0.33333334
    shadowCascade4Split: {x: 0.06666667, y: 0.19999999, z: 0.46666664}
    blendWeights: 4
    textureQuality: 0
    anisotropicTextures: 2
    antiAliasing: 4
    softParticles: 1
    softVegetation: 1
    realtimeReflectionProbes: 1
    billboardsFaceCameraPosition: 1
    vSyncCount: 0
    lodBias: 2
    maximumLODLevel: 0
    particleRaycastBudget: 4096
    asyncUploadTimeSlice: 2
    asyncUploadBufferSize: 4
    excludedTargetPlatforms: []
  m_PerPlatformDefaultQuality:
    Android: 1
    BlackBerry: 1
    Standalone: 2
    WP8: 1
    Web: 2
    WebGL: 1
    Windows Store Apps: 1
    iPhone: 1
